{
    "Pipeline": {
        "BaseStepMs": 1,
        "Guarded": true,
        "MainTickBufferSize": 5,
        "PrintStateChanges": true,
        "PrintClientStateChanges": true,
        "MarkNondeterministicLogOutput": false,
        "Logger": {"LoggerType": "SpdLog", "LoggerLevel": "Trace", "ConsoleSinkLevel": "Trace", "FileSinkLevel": "Trace", "Filename": "mpmca.log", "Truncate": false},
        "InOutputs": {
            "Hello World InOutput One": {"Type": "HelloWorld", "PrintMessages": true, "ExecutionOrder": 0},
            "Hello World InOutput Two": {"Type": "HelloWorld", "PrintMessages": true, "ExecutionOrder": 1},
            "GoToRun": {"Type": "GoToRun", "ExecutionOrder": 2}
        },
        "Task": {
            "TimeStepMs": 3,
            "Horizon": {"PredictionMaximumTimeStepMs": 30, "Steps": [{"Count": 50, "StepMs": 3}]},
            "Steps": {
                "Hello World Step One": {"Type": "HelloWorld", "PrintMessages": true, "ExecutionOrder": 0},
                "Hello World Step Two": {"Type": "HelloWorld", "PrintMessages": true, "ExecutionOrder": 100}
            }
        }
    }
}