{
    "ParentConfigFile": "config.json",
    "Pipeline": {
        "InOutputs": {
            "ControlCommands": {
                "Type": "ControlCommands",
                "Disabled": false,
                "MaximumComputationTimeUs": 200,
                "HorizonOffset": 1,
                "FinalTransformX": 0,
                "FinalTransformY": 0,
                "FinalTransformZ": -0.9,
                "InitialStateEqualsNominalState": false,
                "InitialState": [0, 0, 0, 0, 0, 0, 0, 0, 0, 0, 0, 0],
                "ExecutionOrder": 1
            }
        },
        "Task": {
            "Steps": {
                "ReferenceFader": {"Type": "FadeInertialReferenceHexapod"},
                "Controller": {
                    "MaximumComputationTimeUs": 20000,
                    "ExecutionOrder": 2,
                    "Disabled": false,
                    "BoundsTightening": 0,
                    "NeutralReferenceOutput": [0, 0, 0, 0, 0, 0, 0, 0, 0],
                    "InputErrorWeight": [0.0001, 0.0001, 0.0001, 0.0001, 0.0001, 0.0001],
                    "InputLowerBound": [-5, -5, -5, -5, -5, -5],
                    "InputUpperBound": [5, 5, 5, 5, 5, 5],
                    "LevenbergMarquardt": 0.5,
                    "OutputErrorWeight": [1, 1, 1, 1, 1, 1, 1, 1, 1],
                    "StateErrorWeight": [0, 0, 0, 0, 0, 0, 0, 0, 0, 0, 0, 0],
                    "StateLowerBound": [-1000, -1000, -1000, -1000, -1000, -1000, -1000, -1000, -1000, -1000, -1000, -1000],
                    "StateUpperBound": [1000, 1000, 1000, 1000, 1000, 1000, 1000, 1000, 1000, 1000, 1000, 1000],
                    "TerminalStateErrorWeight": [0, 0, 0, 0, 0, 0, 0, 0, 0, 0, 0, 0],
                    "TighteningHorizon": 1,
                    "Protector": true,
                    "LimitAxes": [true, true, true, true, true, true],
                    "ChangeFactor": 1000,
                    "IntegrationMethod": "constantXY",
                    "Type": "PredictiveControl"
                },
                "McapLogger": {"Type": "McapLoggerHexapod", "MaximumComputationTimeUs": 2000, "ExecutionOrder": 101, "Disabled": false, "Filename": "demo_live_for_speed_hexapod_online.mcap"}
            }
        }
    }
}